{
  "type": "service_account",
  "project_id": "ifg-data-platform",
  "private_key_id": "471cd05fbb5062923d20e77f62ef8d2927fa266e",
  "private_key": "-----BEGIN PRIVATE KEY-----\nMIIEvQIBADANBgkqhkiG9w0BAQEFAASCBKcwggSjAgEAAoIBAQCKHQ4XAhMUIzq+\nHq7GJCcwEIczKYSu6JFjy93DxmyUJ5snNIhLlwqUU+8REK8AcXZAUBs65MJ9TmN6\nDU4G4BcgEYr8ogUFCIPWzu7dJokvyAlzOpqPxayjAcs5rZNqqnzz0zOs1ne6qYAb\nYxCClrg30GaiKrsEZl+goiF/IaqyVWd52/p7oUukserpIXZIypYFq+aCy4R+k5To\nmtQH0GSnAMtc15c86u2OEnES+0Zanr2ZFcz0BU6EDcyGENFpDTkkUmdlvCC/0WVj\ncpSmkFp4Ps9v+5bx1Y3dlso+gyyDLeP+95LzWA65+m+RuuQ0/VfO1dob5x2kvhox\nEh3r62j9AgMBAAECggEAGI/6w8JBcN0kExBDXmcrFfv2g3WQjIe9ZZ1p0um8wSt7\nByGrVKAnyEHWHDeWm/JRyLXGZfatlRnmDJyFoijjy/b6vBu3X1IImmECb4+tKbN+\nZMEJIGUUIwhMY3VYaImp/7XxtH0O3YJMD3LSiprx57E3M4N8b5eiTZ/P67tpz12o\njfDCZC35Z74oWNwHswdxi90xOI9iMy2+zuHen17Qp3Q79kDi8uc9d5D2facTcPmG\nPvMKjAk0GnkoFlBD8iE0Zm8tajX5HDkELHWMlt1rBoYlUrJI5T7qNLKzckcPbb0/\n6RCbwSAMMS67D45lgPKwZ3BvQCJAXMquF8n60/ERWQKBgQC+4S/2rFJsxv6/Eu43\nLj4B8UNT5kBbDesuv5sAKCcnVI5b2BvyT/KwOkRLAYLVPKfYrJVSeBv61n4PPbit\nSCbw8kYV6YD44ecc1ZpnuBig6JVa+30dZg5vE6ksMUkqbjW3RstgA3wvOw4KN/Es\nARdZE8q8pq0huNHolOGvugM9pQKBgQC5O3FeRtztuypBJbKF68R1pv+yUSYPS66Z\nSlTx41/bKbdxp6BudATSjrLfiy3Q4AD1xWS+OGujZ5lsoVHTf+tkwGiJ+BRcEPrA\n4uWAVmiHJhYmGy9Dil2C4LqvM2fuWfHOpnJvF5jD1QZ+xKalirxZMCDAU9tsEKsF\nyVMG+D9OeQKBgQCa7JrJU0PzFfBdlTfTgazCVteWmSNSxBFGeC2OCwj8WxzQXq8Q\nFOOdNS2I00klWX3B1xG7RdEv3jeily31NsKkfX90+Xi8iF3UgWo5FKqorx3KIqSB\n3/uHHCYKwFXqIllm0AbxfuKkUwIqOQ198cTJf87lH0MWQ7PbWjtzLT7EIQKBgBk8\nmRCQNQ+KvZIMscr/OVASRaok1julQw+Nig8+vFOe1mh8vyXtVq7dVE+SpdZcfqT9\nlOE5zKiBt+yN+hkHx6l9cYDCtPtqMM/Q2hXnL+yh6sicUY8xLdZkCetO5K0bwg82\nrEaof17HClCBOHc7dLfuD7hEdJO/nZ13NYGwlud5AoGAZG+9qgpurMgGOGKK1V9k\nKo0qD5tvn2pKEOQtjBVQw+eWZ4pVoDrV7/dhwdOCSv4qIxK2JPR/i4bcBcsPwiIz\nf6lNCgzR7JH13AEtKhcGoIicgnOJxKuOr4cKb6fqvbGJiYU4JPBacRHmnOpGwoMo\ntyKvKW52OQCddDOLL1+Ic/w=\n-----END PRIVATE KEY-----\n",
  "client_email": "master-gcp-bq@ifg-data-platform.iam.gserviceaccount.com",
  "client_id": "103897256168219585894",
  "auth_uri": "https://accounts.google.com/o/oauth2/auth",
  "token_uri": "https://oauth2.googleapis.com/token",
  "auth_provider_x509_cert_url": "https://www.googleapis.com/oauth2/v1/certs",
  "client_x509_cert_url": "https://www.googleapis.com/robot/v1/metadata/x509/master-gcp-bq%40ifg-data-platform.iam.gserviceaccount.com",
  "universe_domain": "googleapis.com"
}
